transcript
# //  Questa Sim-64
# //  Version 2021.1 win64 Jan 19 2021
# //
# //  Copyright 1991-2021 Mentor Graphics Corporation
# //  All Rights Reserved.
# //
# //  QuestaSim and its associated documentation contain trade
# //  secrets and commercial or financial information that are the property of
# //  Mentor Graphics Corporation and are privileged, confidential,
# //  and exempt from disclosure under the Freedom of Information Act,
# //  5 U.S.C. Section 552. Furthermore, this information
# //  is prohibited from disclosure under the Trade Secrets Act,
# //  18 U.S.C. Section 1905.
# //
do run.do
# QuestaSim-64 vlog 2021.1 Compiler 2021.01 Jan 19 2021
# Start time: 11:13:47 on Jul 28,2024
# vlog -reportprogress 300 -f dut.f 
# -- Compiling module memory_16x32
# 
# Top level modules:
# 	memory_16x32
# End time: 11:13:47 on Jul 28,2024, Elapsed time: 0:00:00
# Errors: 0, Warnings: 0
# QuestaSim-64 vlog 2021.1 Compiler 2021.01 Jan 19 2021
# Start time: 11:13:47 on Jul 28,2024
# vlog -reportprogress 300 -f tb.f 
# -- Compiling package memory_pkg
# -- Importing package mtiUvm.uvm_pkg (uvm-1.1d Built-in)
# ** Note: (vlog-2286) memory_uvm_pkg.sv(4): Using implicit +incdir+F:/questasim/questasim64_2021.1/uvm-1.1d/../verilog_src/uvm-1.1d/src from import uvm_pkg
# -- Compiling interface inf
# ** Error: interface/memory_interface.sv(5): (vlog-13006) Could not find the package (a7a).  Design read will continue, but expect a cascade of errors after this failure.  Furthermore if you experience a vopt-7 error immediately before this error then please check the package names or the library search paths on the command line.
# -- Compiling module top_test_uvm
# -- Importing package memory_pkg
# End time: 11:13:48 on Jul 28,2024, Elapsed time: 0:00:01
# Errors: 1, Warnings: 0
# ** Error: F:/questasim/questasim64_2021.1/win64/vlog failed.
# Error in macro ./run.do line 4
# F:/questasim/questasim64_2021.1/win64/vlog failed.
#     while executing
# "vlog -f tb.f"
do run.do
# QuestaSim-64 vlog 2021.1 Compiler 2021.01 Jan 19 2021
# Start time: 11:17:31 on Jul 28,2024
# vlog -reportprogress 300 -f dut.f 
# -- Compiling module memory_16x32
# 
# Top level modules:
# 	memory_16x32
# End time: 11:17:31 on Jul 28,2024, Elapsed time: 0:00:00
# Errors: 0, Warnings: 0
# QuestaSim-64 vlog 2021.1 Compiler 2021.01 Jan 19 2021
# Start time: 11:17:31 on Jul 28,2024
# vlog -reportprogress 300 -f tb.f 
# -- Compiling package memory_pkg
# -- Importing package mtiUvm.uvm_pkg (uvm-1.1d Built-in)
# ** Note: (vlog-2286) memory_uvm_pkg.sv(4): Using implicit +incdir+F:/questasim/questasim64_2021.1/uvm-1.1d/../verilog_src/uvm-1.1d/src from import uvm_pkg
# -- Compiling interface inf
# -- Importing package memory_pkg
# -- Compiling module top_test_uvm
# 
# Top level modules:
# 	top_test_uvm
# End time: 11:17:32 on Jul 28,2024, Elapsed time: 0:00:01
# Errors: 0, Warnings: 0
# QuestaSim-64 vopt 2021.1 Compiler 2021.01 Jan 19 2021
# Start time: 11:17:36 on Jul 28,2024
# vopt -reportprogress 300 top_test_uvm -o top_optimized "+acc" "+cover=sbfec+memory_16x32(rtl)." 
# 
# Top level modules:
# 	top_test_uvm
# 
# Analyzing design...
# -- Loading module top_test_uvm
# -- Importing package mtiUvm.uvm_pkg (uvm-1.1d Built-in)
# -- Importing package memory_pkg
# -- Loading package mtiUvm.questa_uvm_pkg
# -- Loading interface inf
# -- Loading module memory_16x32
# Optimizing 7 design-units (inlining 0/3 module instances):
# -- Optimizing package mtiUvm.uvm_pkg (uvm-1.1d Built-in)(fast)
# -- Optimizing package mtiUvm.questa_uvm_pkg(fast)
# -- Optimizing package memory_pkg(fast)
# -- Optimizing interface inf(fast__2)
# -- Optimizing module memory_16x32(fast)
# -- Optimizing module top_test_uvm(fast)
# -- Optimizing interface inf(fast)
# Optimized design name is top_optimized
# End time: 11:17:40 on Jul 28,2024, Elapsed time: 0:00:04
# Errors: 0, Warnings: 0
# vsim top_optimized -coverage "+UVM_TESTNAME=reset_16_write_read_test" 
# Start time: 11:17:43 on Jul 28,2024
# Loading sv_std.std
# Loading work.inf(fast)
# Loading mtiUvm.uvm_pkg(fast)
# Loading work.memory_pkg(fast)
# Loading mtiUvm.questa_uvm_pkg(fast)
# Loading work.top_test_uvm(fast)
# Loading work.inf(fast__2)
# Loading work.memory_16x32(fast)
# Loading F:/questasim/questasim64_2021.1/uvm-1.1d\win64\uvm_dpi.dll
# ----------------------------------------------------------------
# UVM-1.1d
# (C) 2007-2013 Mentor Graphics Corporation
# (C) 2007-2013 Cadence Design Systems, Inc.
# (C) 2006-2013 Synopsys, Inc.
# (C) 2011-2013 Cypress Semiconductor Corp.
# ----------------------------------------------------------------
# 
#   ***********       IMPORTANT RELEASE NOTES         ************
# 
#   You are using a version of the UVM library that has been compiled
#   with `UVM_NO_DEPRECATED undefined.
#   See http://www.eda.org/svdb/view.php?id=3313 for more details.
# 
#   You are using a version of the UVM library that has been compiled
#   with `UVM_OBJECT_MUST_HAVE_CONSTRUCTOR undefined.
#   See http://www.eda.org/svdb/view.php?id=3770 for more details.
# 
#       (Specify +UVM_NO_RELNOTES to turn off this notice)
# 
# UVM_INFO verilog_src/questa_uvm_pkg-1.2/src/questa_uvm_pkg.sv(277) @ 0: reporter [Questa UVM] QUESTA_UVM-1.2.3
# UVM_INFO verilog_src/questa_uvm_pkg-1.2/src/questa_uvm_pkg.sv(278) @ 0: reporter [Questa UVM]  questa_uvm::init(+struct)
# UVM_INFO @ 0: reporter [RNTST] Running test reset_16_write_read_test...
# write_test build phase
# env build phase
# my_agent build phase
# my_driver build phase
# my_monitor build phase
# sequencer build phase
# coverage build_phase
# my_scoreboard build phase
# my_driver connect phase
# my_monitor connect phase
# sequencer connect phase
# my_agent connect phase
# my_scoreboard connect phase
# envconnect phase
# write_test connect phase
# my_monitor end_of_elaboration_phase
# my_monitor end_of_elaboration_phase
# my_monitor end_of_elaboration_phase
# env run phase
# coverage run_phase
# my_agent run phase
# sequencer run phase
# start of pre_body task
# start of body task
# start of pre_body task
# start of body task
# start item has been invoked
# UVM_INFO components/scoreboard.svh(95) @ 20: uvm_test_top.env_h.scoreboard_h [SCOREBOARD] RECIEVED_SEQ_ITEM:  time:                   20  addr: 0  data_in: 0   data_out: 0 	valid_out: 0  rst: 1  en:x
# UVM_INFO components/scoreboard.svh(63) @ 20: uvm_test_top.env_h.scoreboard_h [SCOREBOARD] RESET_PASS:  time:                   20  addr: 0  data_in: 0   data_out: 0 	valid_out: 0  rst: 1  en:x
# my_scoreboard run phase
# finish item has been invoked
# start of pre_body task
# start of body task
# start item has been invoked
# UVM_INFO components/scoreboard.svh(95) @ 40: uvm_test_top.env_h.scoreboard_h [SCOREBOARD] RECIEVED_SEQ_ITEM:  time:                   40  addr: 1  data_in: 2041378405   data_out: 0 	valid_out: 0  rst: 0  en:1
# UVM_INFO components/scoreboard.svh(74) @ 40: uvm_test_top.env_h.scoreboard_h [SCOREBOARD] WRITE_PASS: FALSE_MEMORY: ADDRESS: 1  WRITTEN: 2041378405 
# UVM_INFO components/scoreboard.svh(75) @ 40: uvm_test_top.env_h.scoreboard_h [SCOREBOARD] WRITE_PASS:  time:                   40  addr: 1  data_in: 2041378405   data_out: 0 	valid_out: 0  rst: 0  en:1
# my_scoreboard run phase
# start item has been invoked
# UVM_INFO components/scoreboard.svh(95) @ 60: uvm_test_top.env_h.scoreboard_h [SCOREBOARD] RECIEVED_SEQ_ITEM:  time:                   60  addr: 3  data_in: 1099880213   data_out: 0 	valid_out: 0  rst: 0  en:1
# UVM_INFO components/scoreboard.svh(74) @ 60: uvm_test_top.env_h.scoreboard_h [SCOREBOARD] WRITE_PASS: FALSE_MEMORY: ADDRESS: 3  WRITTEN: 1099880213 
# UVM_INFO components/scoreboard.svh(75) @ 60: uvm_test_top.env_h.scoreboard_h [SCOREBOARD] WRITE_PASS:  time:                   60  addr: 3  data_in: 1099880213   data_out: 0 	valid_out: 0  rst: 0  en:1
# my_scoreboard run phase
# start item has been invoked
# UVM_INFO components/scoreboard.svh(95) @ 80: uvm_test_top.env_h.scoreboard_h [SCOREBOARD] RECIEVED_SEQ_ITEM:  time:                   80  addr: 0  data_in: 3785400016   data_out: 0 	valid_out: 0  rst: 0  en:1
# UVM_INFO components/scoreboard.svh(74) @ 80: uvm_test_top.env_h.scoreboard_h [SCOREBOARD] WRITE_PASS: FALSE_MEMORY: ADDRESS: 0  WRITTEN: 3785400016 
# UVM_INFO components/scoreboard.svh(75) @ 80: uvm_test_top.env_h.scoreboard_h [SCOREBOARD] WRITE_PASS:  time:                   80  addr: 0  data_in: 3785400016   data_out: 0 	valid_out: 0  rst: 0  en:1
# my_scoreboard run phase
# start item has been invoked
# UVM_INFO components/scoreboard.svh(95) @ 100: uvm_test_top.env_h.scoreboard_h [SCOREBOARD] RECIEVED_SEQ_ITEM:  time:                  100  addr: 2  data_in: 2951042149   data_out: 0 	valid_out: 0  rst: 0  en:1
# UVM_INFO components/scoreboard.svh(74) @ 100: uvm_test_top.env_h.scoreboard_h [SCOREBOARD] WRITE_PASS: FALSE_MEMORY: ADDRESS: 2  WRITTEN: 2951042149 
# UVM_INFO components/scoreboard.svh(75) @ 100: uvm_test_top.env_h.scoreboard_h [SCOREBOARD] WRITE_PASS:  time:                  100  addr: 2  data_in: 2951042149   data_out: 0 	valid_out: 0  rst: 0  en:1
# my_scoreboard run phase
# start item has been invoked
# UVM_INFO components/scoreboard.svh(95) @ 120: uvm_test_top.env_h.scoreboard_h [SCOREBOARD] RECIEVED_SEQ_ITEM:  time:                  120  addr: 13  data_in: 1507566089   data_out: 0 	valid_out: 0  rst: 0  en:1
# UVM_INFO components/scoreboard.svh(74) @ 120: uvm_test_top.env_h.scoreboard_h [SCOREBOARD] WRITE_PASS: FALSE_MEMORY: ADDRESS: 13  WRITTEN: 1507566089 
# UVM_INFO components/scoreboard.svh(75) @ 120: uvm_test_top.env_h.scoreboard_h [SCOREBOARD] WRITE_PASS:  time:                  120  addr: 13  data_in: 1507566089   data_out: 0 	valid_out: 0  rst: 0  en:1
# my_scoreboard run phase
# start item has been invoked
# UVM_INFO components/scoreboard.svh(95) @ 140: uvm_test_top.env_h.scoreboard_h [SCOREBOARD] RECIEVED_SEQ_ITEM:  time:                  140  addr: 15  data_in: 1019133621   data_out: 0 	valid_out: 0  rst: 0  en:1
# UVM_INFO components/scoreboard.svh(74) @ 140: uvm_test_top.env_h.scoreboard_h [SCOREBOARD] WRITE_PASS: FALSE_MEMORY: ADDRESS: 15  WRITTEN: 1019133621 
# UVM_INFO components/scoreboard.svh(75) @ 140: uvm_test_top.env_h.scoreboard_h [SCOREBOARD] WRITE_PASS:  time:                  140  addr: 15  data_in: 1019133621   data_out: 0 	valid_out: 0  rst: 0  en:1
# my_scoreboard run phase
# start item has been invoked
# UVM_INFO components/scoreboard.svh(95) @ 160: uvm_test_top.env_h.scoreboard_h [SCOREBOARD] RECIEVED_SEQ_ITEM:  time:                  160  addr: 12  data_in: 96637585   data_out: 0 	valid_out: 0  rst: 0  en:1
# UVM_INFO components/scoreboard.svh(74) @ 160: uvm_test_top.env_h.scoreboard_h [SCOREBOARD] WRITE_PASS: FALSE_MEMORY: ADDRESS: 12  WRITTEN: 96637585 
# UVM_INFO components/scoreboard.svh(75) @ 160: uvm_test_top.env_h.scoreboard_h [SCOREBOARD] WRITE_PASS:  time:                  160  addr: 12  data_in: 96637585   data_out: 0 	valid_out: 0  rst: 0  en:1
# my_scoreboard run phase
# start item has been invoked
# UVM_INFO components/scoreboard.svh(95) @ 180: uvm_test_top.env_h.scoreboard_h [SCOREBOARD] RECIEVED_SEQ_ITEM:  time:                  180  addr: 14  data_in: 3190304433   data_out: 0 	valid_out: 0  rst: 0  en:1
# UVM_INFO components/scoreboard.svh(74) @ 180: uvm_test_top.env_h.scoreboard_h [SCOREBOARD] WRITE_PASS: FALSE_MEMORY: ADDRESS: 14  WRITTEN: 3190304433 
# UVM_INFO components/scoreboard.svh(75) @ 180: uvm_test_top.env_h.scoreboard_h [SCOREBOARD] WRITE_PASS:  time:                  180  addr: 14  data_in: 3190304433   data_out: 0 	valid_out: 0  rst: 0  en:1
# my_scoreboard run phase
# start item has been invoked
# UVM_INFO components/scoreboard.svh(95) @ 200: uvm_test_top.env_h.scoreboard_h [SCOREBOARD] RECIEVED_SEQ_ITEM:  time:                  200  addr: 5  data_in: 1870215818   data_out: 0 	valid_out: 0  rst: 0  en:1
# UVM_INFO components/scoreboard.svh(74) @ 200: uvm_test_top.env_h.scoreboard_h [SCOREBOARD] WRITE_PASS: FALSE_MEMORY: ADDRESS: 5  WRITTEN: 1870215818 
# UVM_INFO components/scoreboard.svh(75) @ 200: uvm_test_top.env_h.scoreboard_h [SCOREBOARD] WRITE_PASS:  time:                  200  addr: 5  data_in: 1870215818   data_out: 0 	valid_out: 0  rst: 0  en:1
# my_scoreboard run phase
# start item has been invoked
# UVM_INFO components/scoreboard.svh(95) @ 220: uvm_test_top.env_h.scoreboard_h [SCOREBOARD] RECIEVED_SEQ_ITEM:  time:                  220  addr: 7  data_in: 1184161535   data_out: 0 	valid_out: 0  rst: 0  en:1
# UVM_INFO components/scoreboard.svh(74) @ 220: uvm_test_top.env_h.scoreboard_h [SCOREBOARD] WRITE_PASS: FALSE_MEMORY: ADDRESS: 7  WRITTEN: 1184161535 
# UVM_INFO components/scoreboard.svh(75) @ 220: uvm_test_top.env_h.scoreboard_h [SCOREBOARD] WRITE_PASS:  time:                  220  addr: 7  data_in: 1184161535   data_out: 0 	valid_out: 0  rst: 0  en:1
# my_scoreboard run phase
# start item has been invoked
# UVM_INFO components/scoreboard.svh(95) @ 240: uvm_test_top.env_h.scoreboard_h [SCOREBOARD] RECIEVED_SEQ_ITEM:  time:                  240  addr: 4  data_in: 770038084   data_out: 0 	valid_out: 0  rst: 0  en:1
# UVM_INFO components/scoreboard.svh(74) @ 240: uvm_test_top.env_h.scoreboard_h [SCOREBOARD] WRITE_PASS: FALSE_MEMORY: ADDRESS: 4  WRITTEN: 770038084 
# UVM_INFO components/scoreboard.svh(75) @ 240: uvm_test_top.env_h.scoreboard_h [SCOREBOARD] WRITE_PASS:  time:                  240  addr: 4  data_in: 770038084   data_out: 0 	valid_out: 0  rst: 0  en:1
# my_scoreboard run phase
# start item has been invoked
# UVM_INFO components/scoreboard.svh(95) @ 260: uvm_test_top.env_h.scoreboard_h [SCOREBOARD] RECIEVED_SEQ_ITEM:  time:                  260  addr: 6  data_in: 1202721371   data_out: 0 	valid_out: 0  rst: 0  en:1
# UVM_INFO components/scoreboard.svh(74) @ 260: uvm_test_top.env_h.scoreboard_h [SCOREBOARD] WRITE_PASS: FALSE_MEMORY: ADDRESS: 6  WRITTEN: 1202721371 
# UVM_INFO components/scoreboard.svh(75) @ 260: uvm_test_top.env_h.scoreboard_h [SCOREBOARD] WRITE_PASS:  time:                  260  addr: 6  data_in: 1202721371   data_out: 0 	valid_out: 0  rst: 0  en:1
# my_scoreboard run phase
# start item has been invoked
# UVM_INFO components/scoreboard.svh(95) @ 280: uvm_test_top.env_h.scoreboard_h [SCOREBOARD] RECIEVED_SEQ_ITEM:  time:                  280  addr: 9  data_in: 3127924865   data_out: 0 	valid_out: 0  rst: 0  en:1
# UVM_INFO components/scoreboard.svh(74) @ 280: uvm_test_top.env_h.scoreboard_h [SCOREBOARD] WRITE_PASS: FALSE_MEMORY: ADDRESS: 9  WRITTEN: 3127924865 
# UVM_INFO components/scoreboard.svh(75) @ 280: uvm_test_top.env_h.scoreboard_h [SCOREBOARD] WRITE_PASS:  time:                  280  addr: 9  data_in: 3127924865   data_out: 0 	valid_out: 0  rst: 0  en:1
# my_scoreboard run phase
# start item has been invoked
# UVM_INFO components/scoreboard.svh(95) @ 300: uvm_test_top.env_h.scoreboard_h [SCOREBOARD] RECIEVED_SEQ_ITEM:  time:                  300  addr: 11  data_in: 3028037898   data_out: 0 	valid_out: 0  rst: 0  en:1
# UVM_INFO components/scoreboard.svh(74) @ 300: uvm_test_top.env_h.scoreboard_h [SCOREBOARD] WRITE_PASS: FALSE_MEMORY: ADDRESS: 11  WRITTEN: 3028037898 
# UVM_INFO components/scoreboard.svh(75) @ 300: uvm_test_top.env_h.scoreboard_h [SCOREBOARD] WRITE_PASS:  time:                  300  addr: 11  data_in: 3028037898   data_out: 0 	valid_out: 0  rst: 0  en:1
# my_scoreboard run phase
# start item has been invoked
# UVM_INFO components/scoreboard.svh(95) @ 320: uvm_test_top.env_h.scoreboard_h [SCOREBOARD] RECIEVED_SEQ_ITEM:  time:                  320  addr: 8  data_in: 1200443279   data_out: 0 	valid_out: 0  rst: 0  en:1
# UVM_INFO components/scoreboard.svh(74) @ 320: uvm_test_top.env_h.scoreboard_h [SCOREBOARD] WRITE_PASS: FALSE_MEMORY: ADDRESS: 8  WRITTEN: 1200443279 
# UVM_INFO components/scoreboard.svh(75) @ 320: uvm_test_top.env_h.scoreboard_h [SCOREBOARD] WRITE_PASS:  time:                  320  addr: 8  data_in: 1200443279   data_out: 0 	valid_out: 0  rst: 0  en:1
# my_scoreboard run phase
# start item has been invoked
# UVM_INFO components/scoreboard.svh(95) @ 340: uvm_test_top.env_h.scoreboard_h [SCOREBOARD] RECIEVED_SEQ_ITEM:  time:                  340  addr: 10  data_in: 2817267667   data_out: 0 	valid_out: 0  rst: 0  en:1
# UVM_INFO components/scoreboard.svh(74) @ 340: uvm_test_top.env_h.scoreboard_h [SCOREBOARD] WRITE_PASS: FALSE_MEMORY: ADDRESS: 10  WRITTEN: 2817267667 
# UVM_INFO components/scoreboard.svh(75) @ 340: uvm_test_top.env_h.scoreboard_h [SCOREBOARD] WRITE_PASS:  time:                  340  addr: 10  data_in: 2817267667   data_out: 0 	valid_out: 0  rst: 0  en:1
# my_scoreboard run phase
# finish item has been invoked
# start of post_do task
# start of pre_body task
# start of body task
# start item has been invoked
# UVM_INFO components/scoreboard.svh(95) @ 360: uvm_test_top.env_h.scoreboard_h [SCOREBOARD] RECIEVED_SEQ_ITEM:  time:                  360  addr: 7  data_in: 2817267667   data_out: 1184161535 	valid_out: 1  rst: 0  en:0
# UVM_INFO components/scoreboard.svh(81) @ 360: uvm_test_top.env_h.scoreboard_h [SCOREBOARD] READ_PASS:  time:                  360  addr: 7  data_in: 2817267667   data_out: 1184161535 	valid_out: 1  rst: 0  en:0
# my_scoreboard run phase
# start item has been invoked
# UVM_INFO components/scoreboard.svh(95) @ 380: uvm_test_top.env_h.scoreboard_h [SCOREBOARD] RECIEVED_SEQ_ITEM:  time:                  380  addr: 13  data_in: 2817267667   data_out: 1507566089 	valid_out: 1  rst: 0  en:0
# UVM_INFO components/scoreboard.svh(81) @ 380: uvm_test_top.env_h.scoreboard_h [SCOREBOARD] READ_PASS:  time:                  380  addr: 13  data_in: 2817267667   data_out: 1507566089 	valid_out: 1  rst: 0  en:0
# my_scoreboard run phase
# start item has been invoked
# UVM_INFO components/scoreboard.svh(95) @ 400: uvm_test_top.env_h.scoreboard_h [SCOREBOARD] RECIEVED_SEQ_ITEM:  time:                  400  addr: 10  data_in: 2817267667   data_out: 2817267667 	valid_out: 1  rst: 0  en:0
# UVM_INFO components/scoreboard.svh(81) @ 400: uvm_test_top.env_h.scoreboard_h [SCOREBOARD] READ_PASS:  time:                  400  addr: 10  data_in: 2817267667   data_out: 2817267667 	valid_out: 1  rst: 0  en:0
# my_scoreboard run phase
# start item has been invoked
# UVM_INFO components/scoreboard.svh(95) @ 420: uvm_test_top.env_h.scoreboard_h [SCOREBOARD] RECIEVED_SEQ_ITEM:  time:                  420  addr: 6  data_in: 2817267667   data_out: 1202721371 	valid_out: 1  rst: 0  en:0
# UVM_INFO components/scoreboard.svh(81) @ 420: uvm_test_top.env_h.scoreboard_h [SCOREBOARD] READ_PASS:  time:                  420  addr: 6  data_in: 2817267667   data_out: 1202721371 	valid_out: 1  rst: 0  en:0
# my_scoreboard run phase
# start item has been invoked
# UVM_INFO components/scoreboard.svh(95) @ 440: uvm_test_top.env_h.scoreboard_h [SCOREBOARD] RECIEVED_SEQ_ITEM:  time:                  440  addr: 12  data_in: 2817267667   data_out: 96637585 	valid_out: 1  rst: 0  en:0
# UVM_INFO components/scoreboard.svh(81) @ 440: uvm_test_top.env_h.scoreboard_h [SCOREBOARD] READ_PASS:  time:                  440  addr: 12  data_in: 2817267667   data_out: 96637585 	valid_out: 1  rst: 0  en:0
# my_scoreboard run phase
# start item has been invoked
# UVM_INFO components/scoreboard.svh(95) @ 460: uvm_test_top.env_h.scoreboard_h [SCOREBOARD] RECIEVED_SEQ_ITEM:  time:                  460  addr: 3  data_in: 2817267667   data_out: 1099880213 	valid_out: 1  rst: 0  en:0
# UVM_INFO components/scoreboard.svh(81) @ 460: uvm_test_top.env_h.scoreboard_h [SCOREBOARD] READ_PASS:  time:                  460  addr: 3  data_in: 2817267667   data_out: 1099880213 	valid_out: 1  rst: 0  en:0
# my_scoreboard run phase
# start item has been invoked
# UVM_INFO components/scoreboard.svh(95) @ 480: uvm_test_top.env_h.scoreboard_h [SCOREBOARD] RECIEVED_SEQ_ITEM:  time:                  480  addr: 9  data_in: 2817267667   data_out: 3127924865 	valid_out: 1  rst: 0  en:0
# UVM_INFO components/scoreboard.svh(81) @ 480: uvm_test_top.env_h.scoreboard_h [SCOREBOARD] READ_PASS:  time:                  480  addr: 9  data_in: 2817267667   data_out: 3127924865 	valid_out: 1  rst: 0  en:0
# my_scoreboard run phase
# start item has been invoked
# UVM_INFO components/scoreboard.svh(95) @ 500: uvm_test_top.env_h.scoreboard_h [SCOREBOARD] RECIEVED_SEQ_ITEM:  time:                  500  addr: 5  data_in: 2817267667   data_out: 1870215818 	valid_out: 1  rst: 0  en:0
# UVM_INFO components/scoreboard.svh(81) @ 500: uvm_test_top.env_h.scoreboard_h [SCOREBOARD] READ_PASS:  time:                  500  addr: 5  data_in: 2817267667   data_out: 1870215818 	valid_out: 1  rst: 0  en:0
# my_scoreboard run phase
# start item has been invoked
# UVM_INFO components/scoreboard.svh(95) @ 520: uvm_test_top.env_h.scoreboard_h [SCOREBOARD] RECIEVED_SEQ_ITEM:  time:                  520  addr: 2  data_in: 2817267667   data_out: 2951042149 	valid_out: 1  rst: 0  en:0
# UVM_INFO components/scoreboard.svh(81) @ 520: uvm_test_top.env_h.scoreboard_h [SCOREBOARD] READ_PASS:  time:                  520  addr: 2  data_in: 2817267667   data_out: 2951042149 	valid_out: 1  rst: 0  en:0
# my_scoreboard run phase
# start item has been invoked
# UVM_INFO components/scoreboard.svh(95) @ 540: uvm_test_top.env_h.scoreboard_h [SCOREBOARD] RECIEVED_SEQ_ITEM:  time:                  540  addr: 8  data_in: 2817267667   data_out: 1200443279 	valid_out: 1  rst: 0  en:0
# UVM_INFO components/scoreboard.svh(81) @ 540: uvm_test_top.env_h.scoreboard_h [SCOREBOARD] READ_PASS:  time:                  540  addr: 8  data_in: 2817267667   data_out: 1200443279 	valid_out: 1  rst: 0  en:0
# my_scoreboard run phase
# start item has been invoked
# UVM_INFO components/scoreboard.svh(95) @ 560: uvm_test_top.env_h.scoreboard_h [SCOREBOARD] RECIEVED_SEQ_ITEM:  time:                  560  addr: 4  data_in: 2817267667   data_out: 770038084 	valid_out: 1  rst: 0  en:0
# UVM_INFO components/scoreboard.svh(81) @ 560: uvm_test_top.env_h.scoreboard_h [SCOREBOARD] READ_PASS:  time:                  560  addr: 4  data_in: 2817267667   data_out: 770038084 	valid_out: 1  rst: 0  en:0
# my_scoreboard run phase
# start item has been invoked
# UVM_INFO components/scoreboard.svh(95) @ 580: uvm_test_top.env_h.scoreboard_h [SCOREBOARD] RECIEVED_SEQ_ITEM:  time:                  580  addr: 15  data_in: 2817267667   data_out: 1019133621 	valid_out: 1  rst: 0  en:0
# UVM_INFO components/scoreboard.svh(81) @ 580: uvm_test_top.env_h.scoreboard_h [SCOREBOARD] READ_PASS:  time:                  580  addr: 15  data_in: 2817267667   data_out: 1019133621 	valid_out: 1  rst: 0  en:0
# my_scoreboard run phase
# start item has been invoked
# UVM_INFO components/scoreboard.svh(95) @ 600: uvm_test_top.env_h.scoreboard_h [SCOREBOARD] RECIEVED_SEQ_ITEM:  time:                  600  addr: 1  data_in: 2817267667   data_out: 2041378405 	valid_out: 1  rst: 0  en:0
# UVM_INFO components/scoreboard.svh(81) @ 600: uvm_test_top.env_h.scoreboard_h [SCOREBOARD] READ_PASS:  time:                  600  addr: 1  data_in: 2817267667   data_out: 2041378405 	valid_out: 1  rst: 0  en:0
# my_scoreboard run phase
# start item has been invoked
# UVM_INFO components/scoreboard.svh(95) @ 620: uvm_test_top.env_h.scoreboard_h [SCOREBOARD] RECIEVED_SEQ_ITEM:  time:                  620  addr: 14  data_in: 2817267667   data_out: 3190304433 	valid_out: 1  rst: 0  en:0
# UVM_INFO components/scoreboard.svh(81) @ 620: uvm_test_top.env_h.scoreboard_h [SCOREBOARD] READ_PASS:  time:                  620  addr: 14  data_in: 2817267667   data_out: 3190304433 	valid_out: 1  rst: 0  en:0
# my_scoreboard run phase
# start item has been invoked
# UVM_INFO components/scoreboard.svh(95) @ 640: uvm_test_top.env_h.scoreboard_h [SCOREBOARD] RECIEVED_SEQ_ITEM:  time:                  640  addr: 0  data_in: 2817267667   data_out: 3785400016 	valid_out: 1  rst: 0  en:0
# UVM_INFO components/scoreboard.svh(81) @ 640: uvm_test_top.env_h.scoreboard_h [SCOREBOARD] READ_PASS:  time:                  640  addr: 0  data_in: 2817267667   data_out: 3785400016 	valid_out: 1  rst: 0  en:0
# my_scoreboard run phase
# start item has been invoked
# UVM_INFO components/scoreboard.svh(95) @ 660: uvm_test_top.env_h.scoreboard_h [SCOREBOARD] RECIEVED_SEQ_ITEM:  time:                  660  addr: 11  data_in: 2817267667   data_out: 3028037898 	valid_out: 1  rst: 0  en:0
# UVM_INFO components/scoreboard.svh(81) @ 660: uvm_test_top.env_h.scoreboard_h [SCOREBOARD] READ_PASS:  time:                  660  addr: 11  data_in: 2817267667   data_out: 3028037898 	valid_out: 1  rst: 0  en:0
# my_scoreboard run phase
# finish item has been invoked
# finish item has been invoked
# write_test run phase
# UVM_INFO verilog_src/uvm-1.1d/src/base/uvm_objection.svh(1267) @ 660: reporter [TEST_DONE] 'run' phase is ready to proceed to the 'extract' phase
# 
# --- UVM Report Summary ---
# 
# ** Report counts by severity
# UVM_INFO :   86
# UVM_WARNING :    0
# UVM_ERROR :    0
# UVM_FATAL :    0
# ** Report counts by id
# [Questa UVM]     2
# [RNTST]     1
# [SCOREBOARD]    82
# [TEST_DONE]     1
# ** Note: $finish    : F:/questasim/questasim64_2021.1/win64/../verilog_src/uvm-1.1d/src/base/uvm_root.svh(430)
#    Time: 660 ns  Iteration: 66  Instance: /top_test_uvm
# 1
# Break in Task uvm_pkg/uvm_root::run_test at F:/questasim/questasim64_2021.1/win64/../verilog_src/uvm-1.1d/src/base/uvm_root.svh line 430
# Saving coverage database on exit...
# End time: 11:19:31 on Jul 28,2024, Elapsed time: 0:01:48
# Errors: 0, Warnings: 0
